(footprint "Digi_XBee_SMT" (version 20211014) (generator pcbnew)
  (layer "F.Cu")
  (tedit 5A056D4C)
  (descr "http://www.digi.com/resources/documentation/digidocs/pdfs/90002126.pdf http://ftp1.digi.com/support/documentation/90001020_F.pdf")
  (tags "Digi XBee SMT RF")
  (attr smd)
  (fp_text reference "REF**" (at 0 -18.85) (layer "F.SilkS")
    (effects (font (size 1 1) (thickness 0.15)))
    (tstamp a023a7e0-73d1-44e8-aa24-3a3306d47f8e)
  )
  (fp_text value "Digi_XBee_SMT" (at 0 2.5) (layer "F.Fab")
    (effects (font (size 1 1) (thickness 0.15)))
    (tstamp 67336ebb-fff7-429e-b327-3a08fe1016bc)
  )
  (fp_text user "required" (at 4.8 -9) (layer "Dwgs.User")
    (effects (font (size 0.5 0.5) (thickness 0.1)))
    (tstamp 179ecaee-b39d-4c99-bc0d-db8fcaad6626)
  )
  (fp_text user "Below module keepout or" (at 0 -4.2) (layer "Dwgs.User")
    (effects (font (size 0.8 0.8) (thickness 0.1)))
    (tstamp 809376f3-d9ba-4bf8-b400-13647bfb45d3)
  )
  (fp_text user "Keepout" (at 4.8 -10) (layer "Dwgs.User")
    (effects (font (size 0.5 0.5) (thickness 0.1)))
    (tstamp 9e5f9122-f372-4cc1-a773-45b2e9ed3445)
  )
  (fp_text user "GND plane recommended!" (at 0 -3) (layer "Dwgs.User")
    (effects (font (size 0.8 0.8) (thickness 0.1)))
    (tstamp b7abf9a9-09b6-4be8-9756-8398c516974d)
  )
  (fp_text user "${REFERENCE}" (at 0.25 0) (layer "F.Fab")
    (effects (font (size 1 1) (thickness 0.15)))
    (tstamp 1733c11e-1324-42da-9c6a-dea8fbc53c6c)
  )
  (fp_line (start 8 16.4) (end 11.25 16.4) (layer "F.SilkS") (width 0.12) (tstamp 3bea184d-0ed7-4979-857a-649ad2cc466a))
  (fp_line (start -11.25 16.4) (end -8 16.4) (layer "F.SilkS") (width 0.12) (tstamp 711c9add-e9b3-4ef5-888a-f957370dbdaa))
  (fp_line (start -11.25 -17.85) (end 11.25 -17.85) (layer "F.SilkS") (width 0.12) (tstamp bba5ecfd-7a9f-4e09-8b8d-600b3d4b7e40))
  (fp_line (start -11.25 15.15) (end -11.25 16.4) (layer "F.SilkS") (width 0.12) (tstamp cdb7dde0-69dd-4926-9cb7-836e66e4b566))
  (fp_line (start -11.25 -10.85) (end -11.25 -17.85) (layer "F.SilkS") (width 0.12) (tstamp d5cf5d1f-a86e-41f1-acb2-392a2a4b9d50))
  (fp_line (start 11.25 -17.85) (end 11.25 -16.85) (layer "F.SilkS") (width 0.12) (tstamp dd3027c6-aa30-4070-b904-376b298b22d3))
  (fp_line (start 11.25 16.4) (end 11.25 15.15) (layer "F.SilkS") (width 0.12) (tstamp f9f02390-8b18-4ce4-b316-3803a7676aa4))
  (fp_line (start 9.4 -10.6) (end 3 -10.6) (layer "Dwgs.User") (width 0.12) (tstamp 22e4b501-6d03-4028-83db-155cdd0c2379))
  (fp_line (start 9.4 -8.3) (end 9.4 -10.6) (layer "Dwgs.User") (width 0.12) (tstamp 3026dbe5-a06d-44bc-80d1-74f60e8e5220))
  (fp_line (start 3 -8.3) (end 9.4 -8.3) (layer "Dwgs.User") (width 0.12) (tstamp 8cab9917-76e4-4d31-bebf-7b1f339a846e))
  (fp_line (start 3 -10.6) (end 3 -8.3) (layer "Dwgs.User") (width 0.12) (tstamp c347ea5a-f9ac-4710-b3d7-6144bdf442d7))
  (fp_line (start -12.75 17.65) (end -12.75 -18.1) (layer "F.CrtYd") (width 0.05) (tstamp 17747da9-a181-436a-a4b1-b1ec33ffd306))
  (fp_line (start 12.75 17.65) (end -12.75 17.65) (layer "F.CrtYd") (width 0.05) (tstamp 9d9e8187-a622-4188-a653-ad2439ffaa6a))
  (fp_line (start -12.75 -18.1) (end 12.75 -18.1) (layer "F.CrtYd") (width 0.05) (tstamp bf1f2349-dd79-40a3-bde8-16e555b903d0))
  (fp_line (start 12.75 -18.1) (end 12.75 17.65) (layer "F.CrtYd") (width 0.05) (tstamp e6f1deb0-1f7e-4385-af7f-4f76f5addd9a))
  (fp_line (start -11 16.18) (end 11 16.18) (layer "F.Fab") (width 0.1) (tstamp 3e96f50f-332c-4fda-9d32-080f19df7d4b))
  (fp_line (start 11 16.18) (end 11 -17.6) (layer "F.Fab") (width 0.1) (tstamp 8d82046c-ea6e-4d2b-bf88-7dcfa9ac495c))
  (fp_line (start 11 -17.6) (end -11 -17.6) (layer "F.Fab") (width 0.1) (tstamp a0a204bd-a699-4e90-a530-f3fff4104f85))
  (fp_line (start -11 -17.6) (end -11 16.18) (layer "F.Fab") (width 0.1) (tstamp afade9ae-8df5-46c2-8dc9-8e09ff942393))
  (fp_line (start -9.5 -10) (end -11 -9) (layer "F.Fab") (width 0.1) (tstamp ca937b10-8457-412a-8be1-ce96fb13a1a4))
  (fp_line (start -11 -10.75) (end -9.5 -10) (layer "F.Fab") (width 0.1) (tstamp edede59f-3f29-4381-ab45-894de91ad38d))
  (pad "1" smd rect (at -11 -9.9) (size 2.84 1.52) (layers "F.Cu" "F.Paste" "F.Mask") (tstamp 2a88561b-2b1d-4839-8d99-f60b03c07e49))
  (pad "2" smd rect (at -11 -7.9) (size 2.84 1.52) (layers "F.Cu" "F.Paste" "F.Mask") (tstamp ac8bf79b-9254-41f5-93e2-c826bd33f80c))
  (pad "3" smd rect (at -11 -5.9) (size 2.84 1.52) (layers "F.Cu" "F.Paste" "F.Mask") (tstamp 015bd572-64e1-4f1b-8a77-49cd14821292))
  (pad "4" smd rect (at -11 -3.9) (size 2.84 1.52) (layers "F.Cu" "F.Paste" "F.Mask") (tstamp e96bccdc-1b56-4d3e-be6a-38ee66b16e27))
  (pad "5" smd rect (at -11 -1.9) (size 2.84 1.52) (layers "F.Cu" "F.Paste" "F.Mask") (tstamp fdd0f9e7-82e9-4df2-8320-a54c5a0ce5dc))
  (pad "6" smd rect (at -11 0.1) (size 2.84 1.52) (layers "F.Cu" "F.Paste" "F.Mask") (tstamp 111e9510-47f3-44e6-b525-7f77f68f6c62))
  (pad "7" smd rect (at -11 2.1) (size 2.84 1.52) (layers "F.Cu" "F.Paste" "F.Mask") (tstamp 4a635b94-5988-46d7-b302-9a1a63c860ce))
  (pad "8" smd rect (at -11 4.1) (size 2.84 1.52) (layers "F.Cu" "F.Paste" "F.Mask") (tstamp b5db1333-d20a-4af6-9d00-fbcb1571405d))
  (pad "9" smd rect (at -11 6.1) (size 2.84 1.52) (layers "F.Cu" "F.Paste" "F.Mask") (tstamp ae7f9611-c9b1-4c05-a84e-5afeb7d5945a))
  (pad "10" smd rect (at -11 8.1) (size 2.84 1.52) (layers "F.Cu" "F.Paste" "F.Mask") (tstamp e7071b37-bbcb-44df-a21c-15139e4357a5))
  (pad "11" smd rect (at -11 10.1) (size 2.84 1.52) (layers "F.Cu" "F.Paste" "F.Mask") (tstamp faae5853-c028-4f7f-80af-a9ca6d33b90c))
  (pad "12" smd rect (at -11 12.1) (size 2.84 1.52) (layers "F.Cu" "F.Paste" "F.Mask") (tstamp 9402214b-6428-4271-83e3-caabafaea891))
  (pad "13" smd rect (at -11 14.1) (size 2.84 1.52) (layers "F.Cu" "F.Paste" "F.Mask") (tstamp 07fab6cb-a846-4633-9961-430d66d0a7f6))
  (pad "14" smd rect (at -7 15.93 90) (size 2.84 1.52) (layers "F.Cu" "F.Paste" "F.Mask") (tstamp f96f343a-31c6-4538-8863-11884d715807))
  (pad "15" smd rect (at -5 15.93 90) (size 2.84 1.52) (layers "F.Cu" "F.Paste" "F.Mask") (tstamp 8376df9b-6337-4f08-aa0a-e9f89a1cc55a))
  (pad "16" smd rect (at -3 15.93 90) (size 2.84 1.52) (layers "F.Cu" "F.Paste" "F.Mask") (tstamp d2148505-f128-4dab-b6fc-5bf970896322))
  (pad "17" smd rect (at -1 15.93 90) (size 2.84 1.52) (layers "F.Cu" "F.Paste" "F.Mask") (tstamp 4a0dcdb9-0bb7-4dbc-a770-203bc71a464a))
  (pad "18" smd rect (at 1 15.93 90) (size 2.84 1.52) (layers "F.Cu" "F.Paste" "F.Mask") (tstamp 993686ac-970f-4c2c-9d58-8ce10d0cbf39))
  (pad "19" smd rect (at 3 15.93 90) (size 2.84 1.52) (layers "F.Cu" "F.Paste" "F.Mask") (tstamp 98705780-22e0-4402-bc92-acedbaca8e0f))
  (pad "20" smd rect (at 5 15.93 90) (size 2.84 1.52) (layers "F.Cu" "F.Paste" "F.Mask") (tstamp c36abe8b-8b57-42b6-baa7-c603d39e2c5a))
  (pad "21" smd rect (at 7 15.93 90) (size 2.84 1.52) (layers "F.Cu" "F.Paste" "F.Mask") (tstamp 923d75e0-0fff-4ead-a621-c46d6dae2ee9))
  (pad "22" smd rect (at 11 14.08) (size 2.84 1.52) (layers "F.Cu" "F.Paste" "F.Mask") (tstamp b6dd4391-4274-46b3-8351-cd7f5e7229c2))
  (pad "23" smd rect (at 11 12.08) (size 2.84 1.52) (layers "F.Cu" "F.Paste" "F.Mask") (tstamp ff5deada-8a35-427a-9d8c-0d160fa28f56))
  (pad "24" smd rect (at 11 10.08) (size 2.84 1.52) (layers "F.Cu" "F.Paste" "F.Mask") (tstamp 27a6895f-af5a-4195-b2f2-b6807a06c500))
  (pad "25" smd rect (at 11 8.08) (size 2.84 1.52) (layers "F.Cu" "F.Paste" "F.Mask") (tstamp 1dee699f-2519-4f40-a4f5-1095e0c5532f))
  (pad "26" smd rect (at 11 6.08) (size 2.84 1.52) (layers "F.Cu" "F.Paste" "F.Mask") (tstamp ca5750f3-6ce8-467f-979f-8836678532ee))
  (pad "27" smd rect (at 11 4.08) (size 2.84 1.52) (layers "F.Cu" "F.Paste" "F.Mask") (tstamp 91d62b44-4c16-4626-88c2-e5d97bf68abf))
  (pad "28" smd rect (at 11 2.08) (size 2.84 1.52) (layers "F.Cu" "F.Paste" "F.Mask") (tstamp dad8c85c-7edb-4a6f-ab87-2fcbb747e21a))
  (pad "29" smd rect (at 11 0.08) (size 2.84 1.52) (layers "F.Cu" "F.Paste" "F.Mask") (tstamp 77bf4131-2501-4f23-8bcb-2cd82a7b21a6))
  (pad "30" smd rect (at 11 -1.92) (size 2.84 1.52) (layers "F.Cu" "F.Paste" "F.Mask") (tstamp 50e67c69-881d-4aa7-8d2f-ba18de378dd1))
  (pad "31" smd rect (at 11 -3.92) (size 2.84 1.52) (layers "F.Cu" "F.Paste" "F.Mask") (tstamp 58f71510-d78a-47d9-b12e-1ab801196ba8))
  (pad "32" smd rect (at 11 -5.92) (size 2.84 1.52) (layers "F.Cu" "F.Paste" "F.Mask") (tstamp 300ff8f3-4303-45bc-8cb1-b455961c3232))
  (pad "33" smd rect (at 11 -7.92) (size 2.84 1.52) (layers "F.Cu" "F.Paste" "F.Mask") (tstamp e6fbe985-2d7d-4d61-ad3c-706098d4420d))
  (pad "34" smd rect (at 11 -9.92) (size 2.84 1.52) (layers "F.Cu" "F.Paste" "F.Mask") (tstamp 2ebe240a-6f0c-43fb-b8f2-85dcc80cac18))
  (pad "35" smd rect (at 11 -11.92) (size 2.84 1.52) (layers "F.Cu" "F.Paste" "F.Mask") (tstamp 36b27427-34e8-4249-9f8e-2b4d321a8a1f))
  (pad "36" smd rect (at 11 -13.92) (size 2.84 1.52) (layers "F.Cu" "F.Paste" "F.Mask") (tstamp 43273948-819f-41c0-a877-9474aaa0c1cf))
  (pad "37" smd rect (at 11 -15.92) (size 2.84 1.52) (layers "F.Cu" "F.Paste" "F.Mask") (tstamp e7da20f3-800b-4aa0-b445-7f1824986bd5))
  (model "${KICAD6_3DMODEL_DIR}/RF_Module.3dshapes/Digi_XBee_SMT.wrl"
    (offset (xyz 0 0 0))
    (scale (xyz 1 1 1))
    (rotate (xyz 0 0 0))
  )
)
